…
### Test input

``` r
x <- "0: 3\n1: 2\n4: 4\n6: 4"
expect_true(all(map_lgl(0:9, ~ prep(x) %>% caught(delay = .x))))
expect_false(caught(prep(x), delay = 10))
```

### My input

``` r
(df <- prep("day13_input.txt"))
#> # A tibble: 43 x 2
#>    depth range
#>  * <int> <int>
#>  1     0     4
#>  2     1     2
#>  3     2     3
#>  4     4     4
#>  5     6     6
#>  6     8     5
#>  7    10     6
#>  8    12     6
#>  9    14     6
#> 10    16    12
#> # ... with 33 more rows
```
…
